module gitlab.com/justin0u0/go-uploader

go 1.16

require (
	github.com/gin-contrib/cors v1.3.1
	github.com/gin-gonic/gin v1.7.2
	github.com/go-playground/validator/v10 v10.8.0 // indirect
	github.com/golang/protobuf v1.5.2 // indirect
	github.com/jessevdk/go-flags v1.5.0
	github.com/json-iterator/go v1.1.11 // indirect
	github.com/mattn/go-isatty v0.0.13 // indirect
	github.com/modern-go/concurrent v0.0.0-20180306012644-bacd9c7ef1dd // indirect
	github.com/modern-go/reflect2 v1.0.1 // indirect
	github.com/sirupsen/logrus v1.8.1
	github.com/ugorji/go v1.2.6 // indirect
	google.golang.org/protobuf v1.27.1 // indirect
	gopkg.in/yaml.v2 v2.4.0 // indirect
)
